<svg xmlns="http://www.w3.org/2000/svg" viewBox="0 0 28.662 15.462">
  <defs>
    <style>
      .cls-1 {
        fill: none;
        stroke: #fff;
        stroke-linecap: round;
        stroke-width: 2px;
      }
    </style>
  </defs>
  <g id="Group_58" data-name="Group 58" transform="translate(-26.562 -18.21)">
    <path id="Path_73" data-name="Path 73" class="cls-1" d="M6144.707-48.79l-6.731,6.731,6.731,6.731" transform="translate(-6110 68)"/>
    <path id="Path_74" data-name="Path 74" class="cls-1" d="M6137.976-42.059h26.248" transform="translate(-6110 68)"/>
  </g>
</svg>
