<?xml version="1.0" encoding="utf-8"?>
<!-- Generator: Adobe Illustrator 20.1.0, SVG Export Plug-In . SVG Version: 6.00 Build 0)  -->
<svg version="1.1" id="Layer_1" xmlns="http://www.w3.org/2000/svg" xmlns:xlink="http://www.w3.org/1999/xlink" x="0px" y="0px"
	 viewBox="0 0 512 512" style="enable-background:new 0 0 512 512;" xml:space="preserve">
<style type="text/css">
	.st0{fill:#48A1AA;}
</style>
<g>
	<g>
		<path class="st0" d="M396.8,236.6h-93.2L281,168.5c-1.8-5.3-6.9-9.5-12.4-8.7c-5.6,0.1-10.5,3.9-12,9.3l-37.4,130.7l-40.3-181.1
			c-1.2-5.5-5.9-9.5-11.5-10c-5.6-0.4-10.8,2.8-12.9,8l-48,120H12.8c-7.1,0-12.8,5.7-12.8,12.8c0,7.1,5.7,12.8,12.8,12.8h102.4
			c5.2,0,9.9-3.2,11.9-8l35.8-89.5l42.2,190c1.3,5.7,6.3,9.8,12.1,10c0.1,0,0.2,0,0.4,0c5.7,0,10.7-3.8,12.3-9.3l39.9-139.4
			l12.5,37.5c1.7,5.2,6.6,8.7,12.2,8.7h102.4c7.1,0,12.8-5.7,12.8-12.8C409.6,242.3,403.9,236.6,396.8,236.6z"/>
	</g>
</g>
<g>
	<g>
		<path class="st0" d="M467,64.4c-30-30-69.3-45-108.6-45c-36.8,0-73.3,13.7-102.4,39.9C226.9,33,190.4,19.4,153.6,19.4
			c-39.3,0-78.6,15-108.6,45C5.2,104.2-7.6,160.2,5.4,211H32c-13.7-44-3.7-93.8,31.1-128.5C87.3,58.3,119.4,45,153.6,45
			c31.2,0,60.4,11.6,83.7,31.9L256,94.4l18.7-17.5C298,56.6,327.2,45,358.4,45c34.2,0,66.3,13.3,90.5,37.5
			c49.9,49.9,49.9,131.1,0,181L256,456.4L87.4,287.8H51.2L256,492.6l211-211C527,221.6,527,124.4,467,64.4z"/>
	</g>
</g>
</svg>
